-------------------------------------------------------------------------------
Test set: com.sr.biz.freightbit.core.service.UserServiceTest
-------------------------------------------------------------------------------
Tests run: 3, Failures: 0, Errors: 0, Skipped: 0, Time elapsed: 14.282 sec
