com\sr\biz\freightbit\core\dao\impl\PermissionDaoImpl.class
com\sr\biz\freightbit\core\service\GroupService.class
com\sr\biz\freightbit\core\service\impl\UserServiceImpl.class
com\sr\biz\freightbit\core\dao\GroupUserDao.class
com\sr\biz\freightbit\core\exceptions\ObjectAlreadyExistsException.class
com\sr\biz\freightbit\core\exceptions\UserAlreadyExistsException.class
com\sr\biz\freightbit\core\dao\GroupDao.class
com\sr\biz\freightbit\core\service\impl\GroupServiceImpl.class
com\sr\biz\freightbit\core\dao\impl\UserDaoImpl.class
com\sr\biz\freightbit\core\service\impl\PermissionServiceImpl.class
com\sr\biz\freightbit\core\entity\Client.class
com\sr\biz\freightbit\core\service\UserService.class
com\sr\biz\freightbit\core\dao\PermissionDao.class
com\sr\biz\freightbit\core\entity\Permission.class
com\sr\biz\freightbit\core\service\PermissionService.class
com\sr\biz\freightbit\core\entity\Group.class
com\sr\biz\freightbit\core\entity\GroupUser.class
com\sr\biz\freightbit\core\dao\UserDao.class
com\sr\biz\freightbit\core\entity\User.class
com\sr\biz\freightbit\core\exceptions\GroupAlreadyExistsException.class
com\sr\biz\freightbit\core\dao\impl\GroupDaoImpl.class
com\sr\biz\freightbit\core\entity\PermissionUserGroup.class
com\sr\biz\freightbit\core\dao\impl\GroupUserDaoImpl.class
